<svg xmlns="http://www.w3.org/2000/svg" width="60" height="60" viewBox="0 0 60 60">
  <g fill="none" fill-rule="evenodd">
    <polygon fill="#040205" points="0 20.004 60 20.004 60 0 0 0"/>
    <polygon fill="#DC0203" points="0 39.996 60 39.996 60 20.004 0 20.004"/>
    <polygon fill="#FCCF04" points="0 60 60 60 60 39.996 0 39.996"/>
  </g>
</svg>
